  853  ls
  854  cd xv6-public/
  855  ls
  856  vim bootmain.d
  857  vim bootmain.c
  858  ls
  859  cd ..
  860  ls
  861  cd xv6-public/
  862  ls
  863  cd ..
  864  ls
  865  cd
  866  cd Downloads/
  867  ls
  868  cd Dow
  869  ls
  870  cd ..
  871  ls
  872  cd Documents/
  873  ls
  874  cd 2-1/
  875  ls
  876  scp Books hemanth.veeranki@web:public_html
  877  ssh hemanth.veeranki@web
  878  gcc 6.c 
  879  ./a.out 
  880  gcc 6.c 
  881  ./a.out 
  882  mv 6.c pro6.c
  883  ls
  884  cd
  885  cd my
  886  cd myc
  887  cd mycodes/
  888  ;s
  889  s
  890  ls
  891  cd CO
  892  cd codeforces/
  893  ls
  894  cd contests/
  895  s
  896  cd ..
  897  ls
  898  cd ..
  899  ls
  900  cd hackerrank/
  901  ls
  902  cd algorithms/
  903  ls
  904  gcc pro6.c 
  905  ./a.out 
  906  gcc pro6.c 
  907  ./a.out 
  908  vim ass6.c 
  909  ls
  910  cd 
  911  cd Downloads/
  912  ls
  913  vim 6.c 
  914  gcc 6.c 
  915  vim 6.c 
  916  gcc 6.c 
  917  vim 6.c 
  918  gcc 6.c 
  919  ./a.out 
  920  gcc 6.c 
  921  vim 6.c 
  922  ls
  923  gcc 6.c 
  924  ./a.out 
  925  vim 6.c 
  926  vim pro6.c 
  927  ls
  928  vim ass6.c 
  929  vim pro6.c 
  930  gcc pro6.c 
  931  ./a.out 
  932  vim ass6.c 
  933  gcc pro6.c 
  934  vim aoi.c 
  935  gcc pro6.c 
  936  vim aoi.c 
  937  ls
  938  rm ass6.c 
  939  ls
  940  rm aoi.c* pro6.c*  
  941  ls
  942  la
  943  vim .dircolors 
  944  ls
  945  cd ..
  946  ls
  947  cd
  948  cd .vim/
  949  ls
  950  cd ..
  951  ls
  952  gcc a
  953  gcc aoi.c 
  954  gcc aoi.c -lm
  955  ./a.out 
  956  gcc aoi.c -lm
  957  ./a.out 
  958  cat > test
  959  ./a.out <test 
  960  gcc aoi.c -lm
  961  ./a.out <test 
  962  ls
  963  cd 
  964  ls
  965  cd DOw
  966  cd Downloads/
  967  ls
  968  gcc aoi.c 
  969  gcc aoi.c -lm
  970  ./a.out 
  971  gcc aoi.c -lm
  972  ./a.out 
  973  ./a.out <test 
  974  gcc aoi.c -lm
  975  ./a.out <test 
  976  gcc aoi.c -lm
  977  ./a.out <test 
  978  gcc aoi.c -lm
  979  ./a.out 
  980  ./a.out <test 
  981  gcc aoi.c -lm
  982  ./a.out <test 
  983  gcc aoi.c -lm
  984  ./a.out 
  985  ./a.out <te
  986  ./a.out <test 
  987  gcc aoi.c -lm
  988  ./a.out <test 
  989  gcc aoi.c -lm
  990  ./a.out <test 
  991  gcc aoi.c -lm
  992  ./a.out <test 
  993  gcc aoi.c -lm
  994  ./a.out <test 
  995  gcc aoi.c -lm
  996  ./a.out 
  997  ./a.out < test 
  998  ./a.out 
  999  gcc aoi.c -lm
 1000  ./a.out < test 
 1001  gcc aoi.c -lm
 1002  ./a.out < test 
 1003  gcc aoi.c -lm
 1004  ./a.out < test 
 1005  gcc aoi.c -lm
 1006  ./a.out <test 
 1007  gcc aoi.c -lm
 1008  ./a.out <test 
 1009  gcc aoi.c -lm
 1010  ./a.out <test 
 1011  gcc aoi.c -lm
 1012  gedit
 1013  gcc aoi.c -lm
 1014  ./a.out 
 1015  ./a.out <test 
 1016  ./a.out 
 1017  gcc aoi.c -lm
 1018  ./a.out <test 
 1019  gcc aoi.c -lm
 1020  ./a.out <test 
 1021  gcc aoi.c -lm
 1022  ./a.out <test 
 1023  cd Downloads/
 1024  mv universe-backgrounds-51-min.jpg universe-backgrounds-51.jpg 
 1025  scp universe-backgrounds-51.jpg hemanth.veeranki@web:
 1026  ls
 1027  cd
 1028  s
 1029  ks
 1030  ls
 1031  vim .bashrc
 1032  ls
 1033  ssh hemanth.veeranki@web
 1034  ls
 1035  ssh@web
 1036  ls
 1037  cd my
 1038  cd myrails/
 1039  ls
 1040  cd blogger/
 1041  ls
 1042  cd app/
 1043  ls
 1044  cd controllers/
 1045  ls
 1046  vim account_controller.rb 
 1047  ls
 1048  cd
 1049  ls
 1050  ;s
 1051  ls
 1052  s
 1053  ls
 1054  cd Downloads/redmine-3.1.0/
 1055  ls
 1056  vim config/database.yml.example 
 1057  vim config/database.yml
 1058  cp config/database.yml.example config/database.yml
 1059  vim config/database.yml
 1060  rake db:migrate
 1061  bundle install 
 1062  apt-get install libmagickwand-dev
 1063  bundle install 
 1064  rake db:migrate
 1065  ls
 1066  rake db:create
 1067  rake db:migrate
 1068  rails server
 1069  ls
 1070  vim config/settings.yml 
 1071  cd config/
 1072  ls
 1073  cd ..
 1074  ls
 1075  mysql -u root p
 1076  mysql -u root -p
 1077  ls
 1078  mysql -u dbadmin -p 
 1079  mysql -u root -p
 1080  ls
 1081  mysql -u root -p
 1082  sudo apt-get install gawk
 1083  mysql -uroot -psql1997  -e "show databases" | grep -v Database | grep -v mysql | grep -v information_schema| grep -v test | grep -v OLD | gawk '{print "drop database " $1";select sleep(0.1);"}' > droppeddatabases.sql
 1084  mysql -u root -p
 1085  mysql -uroot -p  -e "show databases" | grep -v Database | grep -v mysql| grep -v information_schema| grep -v test | grep -v OLD |gawk '{print "drop database " $1 ";select sleep(0.1);"}' | mysql -uroot -psql1997
 1086  mysql -u root -p
 1087  mysql -u root -p  -e "show databases" | grep -v Database | grep -v mysql| grep -v information_schema| grep -v test | grep -v OLD |gawk '{print "drop database " $1 ";select sleep(0.1);"}' | mysql -u root -p
 1088  rails server
 1089  cd tracker/
 1090  rails server
 1091  cd ..
 1092  ls
 1093  rm -rf tracker/
 1094  cd user_auth/
 1095  rails server
 1096  sudo apt-get install mysql --reinstall
 1097  sudo apt-get install mysql-server mysql-client libmysqlclient-dev --reintsall
 1098  sudo apt-get install mysql-server mysql-client libmysqlclient-dev --reinstall
 1099  mysql -u root -p
 1100  sudo apt-get remove mysql-server mysql-client libmysqlclient-dev 
 1101  mysql
 1102  mysql -u root -p
 1103  sudo apt-get install mysql-server mysql-client libmysqlclient-dev --reinstall
 1104  cd /var/lib/mysql
 1105  sudo -i 
 1106  mysql -u root -p
 1107  mysql -u root -p 
 1108  mysql -u dbadmin -p 
 1109  mysql -u root -p 
 1110  ls
 1111  mysql -u dbadmin -p 
 1112  rails server
 1113  ls
 1114  cd
 1115  cd myrails/
 1116  ls
 1117  cd ..
 1118  ls
 1119  cd my
 1120  cd myrails/
 1121  ls
 1122  rm -rf 
 1123  ls
 1124  rails new tracker -d mysql
 1125  bundle install
 1126  cd tracker/
 1127  ls
 1128  bundler install
 1129  bundle install
 1130  vim config/database.yml 
 1131  ls
 1132  rake db:create
 1133  ls
 1134  mysql -u root -p
 1135  ls
 1136  rails generate scaffold User username:string email:string encrypted_password:string salt:string 
 1137  ls
 1138  rake db:migrate 
 1139  cd .
 1140  cd ..
 1141  rails new user_auth
 1142  bundle install
 1143  cd user_auth/
 1144  bundle instal
 1145  bundle install
 1146  cs
 1147  ls
 1148  vim config/database.yml 
 1149  cd ..
 1150  ls
 1151  rm user_auth -rf 
 1152  ls
 1153  vim droppeddatabases.sql 
 1154  rm droppeddatabases.sql 
 1155  ls
 1156  rails new auth -d mysql
 1157  cd auth/
 1158  ls
 1159  vim config/database.yml 
 1160  rails g model user
 1161  rails g controller users new
 1162  ls
 1163  cd db/
 1164  ls
 1165  cd migrate/
 1166  ls
 1167  vim 20150904132348_create_users.rb 
 1168  rails server
 1169  ;
 1170  rake db:migrate
 1171  rake db:create
 1172  rake db:migrate
 1173  rake routes 
 1174  rake db:migrate
 1175  rake db:create
 1176  rake db:migrate
 1177  rake db:create
 1178  rake db:migrate VERSION=0
 1179  rake db:migrate 
 1180  rake db:migrate VERSION=0
 1181  rake db:create
 1182  rake db:migrate 
 1183  rake db:migrate VERSION =0
 1184  rake db:migrate VERSION=0
 1185  rake db:migrate 
 1186  rake db:migrate VERSION=0
 1187  rake db:migrate 
 1188  \
 1189  ls
 1190  rails generate scaffold User name:string username:string encrypted_password:string salt:string 
 1191  rake db:create
 1192  rake db:migrate
 1193  rake db:migrate VERSION=0
 1194  rake db:migrate 
 1195  rails server
 1196  ls
 1197  cd ..
 1198  ls
 1199  mysql -u root -p 
 1200  mysql -u dbadmin -p 123
 1201  mysql -u dbadmin -p 
 1202  ls
 1203  cd ..
 1204  ls
 1205  mkdir userauth
 1206  rm -r userauth/
 1207  rails new userauth -d mysql
 1208  bundler install
 1209  cd userauth/
 1210  ls
 1211  vim config/database.yml 
 1212  ls
 1213  rails server
 1214  cd //
 1215  cd 
 1216  cd myrails/
 1217  cd userauth/
 1218  ls
 1219  vim config/database.yml 
 1220  vim config/routes.rb 
 1221  rails server
 1222  ls
 1223  cd myrails/
 1224  ls
 1225  cd userauth/
 1226  ls
 1227  rake cheatsheet:create_pdf
 1228  ls
 1229  cd 
 1230  ls
 1231  cd myrails/
 1232  ls
 1233  cd ai
 1234  cd auth/
 1235  ls
 1236  vim config/routes.rb 
 1237  vim app/controllers/users_controller.rb 
 1238  vim app/views/index.html.erb
 1239  vim config/routes.rb 
 1240  cd //
 1241  cd cd my
 1242  cd cd myra
 1243  cd myra
 1244  cd
 1245  cd myrails/
 1246  ls
 1247  cd auth/
 1248  ls
 1249  cs app/assets/
 1250  ls
 1251  cd app/assets/
 1252  vim app/views/index.html.erb 
 1253  :q
 1254  cp app/views/index.html.erb app/views/users/index.html.erb
 1255  vim app/controllers/users_controller.rb 
 1256  cd ..
 1257  cd userauth/
 1258  ls
 1259  vim app/views/users/index.
 1260  vim app/views/users/index.html.erb 
 1261  cp app/views/users/index.html.erb ../auth/app/views/users/index.html.erb 
 1262  vim app/controllers/users_controller.rb 
 1263  ls
 1264  cd .
 1265  cd ..
 1266  ls
 1267  cd auth/app/views/
 1268  ls
 1269  cd users/
 1270  ls
 1271  vim edit.html.erb 
 1272  ls
 1273  cp ../_form.html.erb .
 1274  rails server
 1275  ls
 1276  rails server
 1277  cd
 1278  vim .vimrc 
 1279  bundle install
 1280  bundle install 
 1281  bundler install
 1282  gem install bcrypt-ruby
 1283  gem install bcrypt
 1284  cd ..
 1285  cd userauth/
 1286  ls
 1287  vim config/routes.rb 
 1288  ls
 1289  cd app/
 1290  cd views/users/
 1291  ls
 1292  vim edit.html.erb 
 1293  vim show.html.erb 
 1294  cp show.* edit.html.erb ../../../../auth/app/views/users/
 1295  vim show.html.erb 
 1296  vim show.json.jbuilder 
 1297  cd ..
 1298  ls
 1299  cd ..
 1300  ls
 1301  cd assets/
 1302  ls
 1303  cd stylesheets/
 1304  ls
 1305  vim scaffolds.scss 
 1306  cp * ~/myrails/auth/app/assets/stylesheets/
 1307  cd ..
 1308  ls
 1309  cd ..
 1310  ls
 1311  cp assets -r ~/myrails/auth/app/
 1312  ls
 1313  vim controllers/users_controller.rb 
 1314  vim views/users/edit.html.erb 
 1315  cd assets/javascripts/
 1316  ls
 1317  vim users.coffee 
 1318  cd ..
 1319  ls
 1320  cd images/
 1321  ls
 1322  cd ..
 1323  ls
 1324  cd ..
 1325  ls
 1326  cd mailers/
 1327  ls
 1328  cd ..
 1329  ls
 1330  cd controllers/
 1331  ls
 1332  cd concerns/
 1333  ls
 1334  cd ..
 1335  ls
 1336  vim users_controller.rb 
 1337  cd ..
 1338  ls
 1339  cd views/
 1340  ls
 1341  cd users/
 1342  cp edit.html.erb ~/myrails/auth/app/views/users/
 1343  cd 
 1344  cd -0
 1345  cd -
 1346  cd ..
 1347  ls
 1348  cd ..
 1349  ls
 1350  cd controllers/
 1351  ls
 1352  vim users_controller.rb 
 1353  ls
 1354  vim users_controller.rb 
 1355  cd ..
 1356  ls
 1357  cd views/
 1358  ls
 1359  cd users/
 1360  ls
 1361  vim  _form.html.erb 
 1362  cp _form.html.erb ~/myrails/auth/app/views/
 1363  ls
 1364  vim edit.html.erb 
 1365  ls
 1366  cd ..
 1367  ls
 1368  rails server
 1369  ls
 1370  cp ~/myrails/auth/Gemfile ../../
 1371  bundle install
 1372  cd ..
 1373  ls
 1374  cd ..
 1375  ls
 1376  bundle install
 1377  ;s
 1378  vim configd
 1379  vim config/database.yml 
 1380  rake db:create
 1381  rake db:migrate
 1382  cd ..
 1383  cd -
 1384  cd app/
 1385  cd controllers/
 1386  ;s
 1387  ls
 1388  cd ..
 1389  ls
 1390  cd controllers/
 1391  vim application_controller.rb 
 1392  cd ..
 1393  ls
 1394  cd models/
 1395  ;s
 1396  ls
 1397  vim user.rb 
 1398  cd ..
 1399  ls
 1400  cd views/
 1401  s
 1402  ls
 1403  cd users/
 1404  ls
 1405  cd confirmations/
 1406  s
 1407  ls
 1408  cd ..
 1409  ls
 1410  cd ..
 1411  ls
 1412  cd ..
 1413  ls
 1414  cd controllers/
 1415  ls
 1416  vim users_controller. rb
 1417  ls
 1418  rake db:seed
 1419  cd ..
 1420  ls
 1421  cd ..
 1422  ls
 1423  vim config/initializers/devise.rb 
 1424  rails console
 1425  ld
 1426  ls
 1427  mysql -u dbadmin -p
 1428  ls
 1429  cd ..
 1430  ls
 1431  cd controllers/
 1432  ls
 1433  vim users_controller.rb 
 1434  cp ~/myrails/auth/app/models/* ../models/
 1435  cp ~/myrails/auth/app/models/* ../models/ -r
 1436  cd ..
 1437  ls
 1438  cd models/
 1439  ls
 1440  vim user.rb 
 1441  ls
 1442  cd ..
 1443  ls
 1444  cd ..
 1445  ls
 1446  cd ..
 1447  ls
 1448  cd auth/
 1449  ls
 1450  cd ..
 1451  ls
 1452  cd vl
 1453  cd blogger/
 1454  ls
 1455  vim 1.sh
 1456  sh 1.sh 
 1457  rails server
 1458  ls
 1459  cd ..
 1460  ls
 1461  cd blogger/
 1462  ls
 1463  vim app/controllers/
 1464  vim app/controllers/application_controller.rb 
 1465  ls
 1466  vim app/views/layouts/application.html.erb 
 1467  cd app/
 1468  cd views/
 1469  ls
 1470  cd users/
 1471  ls
 1472  cd passwords/
 1473  ls
 1474  cd ..
 1475  ls
 1476  cd s
 1477  cd sessions/
 1478  cd ..
 1479  ls
 1480  ls - R
 1481  ls -R
 1482  cd
 1483  ls
 1484  cd myrails/
 1485  ls
 1486  rm -rf blogger/
 1487  rm -rf userauth/
 1488  ls
 1489  cd auth/
 1490  ls
 1491  cd ..
 1492  ls
 1493  cd auth/
 1494  ls
 1495  cd .
 1496  cd ..
 1497  ls
 1498  rails new tracker -d mysql
 1499  cd tracker/
 1500  ls
 1501  echo >> Gemfile
 1502  cat >> Gemfile
 1503  bundle install
 1504  rails server
 1505  ls
 1506  rails server
 1507  ls
 1508  cd ..
 1509  ls
 1510  rm -rf userauth/
 1511  ls
 1512  cd tracker/
 1513  rails g devise:install
 1514  vim config/environments/development.rb 
 1515  vim app/views/layouts/application.html.erb 
 1516  rails g devise user
 1517  rake db:migrate
 1518  rake db:migrate VERSION=0
 1519  vim config/routes.rb 
 1520  rake db:migrate
 1521  rake db:migrate VERSION=0
 1522  rake db:migrate
 1523  ls
 1524  cd config/ro
 1525  cd config/rou
 1526  vim config/routes.rbu
 1527  vim config/routes.rb
 1528  rm -rf db/migrate/*
 1529  ls
 1530  rails g devise user
 1531  rake db:migrate
 1532  vim config/routes.rb 
 1533  rake db:migrate
 1534  cd ..
 1535  ls
 1536  rm -rf tracker
 1537  rails new tracker -d mysql
 1538  ls
 1539  cd tracker/
 1540  ls
 1541  rails g devise:install
 1542  myisamchk -q -r /var/lib/mysql/mysql/proc
 1543  sudo myisamchk -q -r /var/lib/mysql/mysql/proc
 1544  cd /var/lib/mysql
 1545  sudo cd /var/lib/mysql
 1546  sudo -i
 1547  mysql -u root -p
 1548  mysql -u root -p
 1549  DROP DATABASE IF EXISTS tracker_development;
 1550  sudo deluser mysql
 1551  vim 1.sh
 1552  sh 1.sh 
 1553  sudo service mysql stop
 1554  vim config/database.yml 
 1555  rake db:create
 1556  cd ..
 1557  cd tracker/
 1558  ls
 1559  vim config/database.yml 
 1560  echo "gem 'device'" >> Gemfile
 1561  bundle ins
 1562  bundle install
 1563  vim Gemfile
 1564  bundle install
 1565  vim Gemfile
 1566  bundle install
 1567  rails g devise:install
 1568  vim config/environments/development.rb 
 1569  vim app/views/layouts/application.html.erb 
 1570  rails g devise user
 1571  rake db:create
 1572  rake db:migrate
 1573  udo killall -9 mysql
 1574  sudo killall -9 mysql
 1575  sudo killall -9 mysqld
 1576  sudo apt-get remove --purge mysql-server mysql-client mysql-common
 1577  sudo service mysql stop
 1578  sudo deluser mysql
 1579  sudo rm -rf /var/lib/mysql
 1580  ls
 1581  mysql -u root -p
 1582  sudo rm -r /var/lib/mysql
 1583  mysql -u root -p
 1584  sudo apt-get install mysql-server mysql-client libmysqlclient-dev
 1585  sudo pkill -9 apt-get
 1586  sudo apt-get install mysql-server mysql-client libmysqlclient-dev
 1587  sudo -i
 1588  sudo apt-get install mysql-server mysql-client libmysqlclient-dev
 1589  sudo apt-get install mysql-server mysql-client libmysqlclient-dev --reintsall
 1590  sudo apt-get install mysql-server mysql-client libmysqlclient-dev --reinstall
 1591  sudo -i
 1592  sudo apt-get clean
 1593  sudo apt-get install mysql-server mysql-client libmysqlclient-dev
 1594  sudo dpkg --configure -a'
 1595  sudo dpkg --configure -a
 1596  sudo dpkg --configure -a'
 1597  sudo apt-get install mysql-server mysql-client libmysqlclient-dev
 1598  ks
 1599  ls
 1600  cd myrails/
 1601  cd tracker/
 1602  ls
 1603  vim 1.sh 
 1604  rm 1.sh 
 1605  ls
 1606  rake db:migrate
 1607  mysql -u root -p
 1608  rails g devise user
 1609  vim config/database.yml 
 1610  ls
 1611  cd app/
 1612  ls
 1613  cd helpers/
 1614  ls
 1615  vim ao
 1616  vim application_helper.rb 
 1617  ls
 1618  cd .
 1619  cd ..
 1620  ls
 1621  cd models/
 1622  ls
 1623  vim user.rb 
 1624  cd ..
 1625  ls
 1626  cd views/
 1627  ls
 1628  cd layouts/
 1629  ls
 1630  cd ..
 1631  ls
 1632  cd .
 1633  cd ..
 1634  ls
 1635  rails g scaffold project name:string references:users
 1636  rake db:migrate
 1637  rails g scaffold project name:string users:references
 1638  rails g scaffold project name:string users:references --force
 1639  rake db:migrate
 1640  rake db:migrate VERSION=0
 1641  rake db:migrate 
 1642  vim ../db/migrate/20150904204700_create_projects.rb 
 1643  rake db:migrate 
 1644  rake db:migrate VERSION=0
 1645  rake db:migrate VERSION=1
 1646  rake db:migrate VERSION=0
 1647  ls
 1648  rm ../db/migrate/20150904204700_create_projects.rb 
 1649  rake db:migrate 
 1650  rake db:migrate VERSION=0
 1651  rails g devise user
 1652  rake db:migrate 
 1653  vim ../config/routes.rb 
 1654  rake db:migrate 
 1655  rails g devise user
 1656  rake db:migrate 
 1657  rm ../db/migrate/*
 1658  rails g devise user
 1659  rake db:migrate 
 1660  vim ../config/routes.rb 
 1661  rake db:migrate 
 1662  ls
 1663  cd ..
 1664  ls
 1665  cd db/
 1666  ls
 1667  vim schema.rb 
 1668  rm schema.rb 
 1669  ls
 1670  rm seeds.rb 
 1671  ls
 1672  cd migrate/
 1673  ls
 1674  rm 20150904205503_add_devise_to_users.rb 
 1675  ls
 1676  cd ..
 1677  ls
 1678  cd ..
 1679  ls
 1680  rails g devise:install
 1681  rails g devise user
 1682  rake db:migrate
 1683  vim config/routes.rb 
 1684  rake db:migrate
 1685  rails g devise user
 1686  rake db:migrate
 1687  cd ..
 1688  ls
 1689  cd ..
 1690  ls
 1691  cd my
 1692  cd myrails/
 1693  ls
 1694  cd itass/
 1695  ls
 1696  cd ..
 1697  ls
 1698  rm itass/
 1699  rm itass -rf
 1700  ls
 1701  rails new sample
 1702  rails g devise:install
 1703  cd ne
 1704  cd sample/
 1705  rails g devise:install
 1706  echo 'gem devise' > Gemfile
 1707  echo "'gem devise'" > Gemfile
 1708  ls
 1709  cd ..
 1710  sl
 1711  ls
 1712  rails new sample
 1713  cd sample/
 1714  echo "'gem devise'" >> Gemfile
 1715  bundle install
 1716  rails g devise:install
 1717  vim Gemfile
 1718  bundle install
 1719  vim Gemfile
 1720  rails g devise:install
 1721  rails new sample -d mysql
 1722  cd ..;rails new sample -d mysql
 1723  cd sample/
 1724  vim Gemfile
 1725  bundle install
 1726  vim ../db/migrate/20150904204700_create_projects.rb 
 1727  rails g devise user
 1728  rake db:migrate
 1729  rake db:create
 1730  rake db:migrate
 1731  rake db:migrate VERSION=0
 1732  rake db:migrate
 1733  rake db:migrate VERSION=0
 1734  rails g devise user
 1735  rake db:migrate V
 1736  rake db:migrate 
 1737  reset 
 1738  rake db:migrate VERSION=0
 1739  rails g devise user
 1740  rake db:migrate VERSION=0
 1741  rake db:migrate 
 1742  rails g devise user
 1743  rake db:migrate 
 1744  rake db:create
 1745  rake db:migrate 
 1746  ls
 1747  rm -rf tracker
 1748  rails new itass -d mysql
 1749  reset 
 1750  cd itass/
 1751  ls
 1752  vim config/environments/development.rb 
 1753  vim app/views/layouts/application.html.erb 
 1754  rails g devise user
 1755  rake db:migrate
 1756  vim app/views/layouts/application.html.erb 
 1757  vim app/controllers/application_controller.rb 
 1758  mysql -u root -p
 1759  cd ..
 1760  ls
 1761  rm -rf sample/
 1762  ls
 1763  rails new sample -d mysql
 1764  cd sample/
 1765  lgem 'devises
 1766  ls
 1767  vim Gemfile
 1768  bundle in
 1769  bundle ins
 1770  rails g devise:in
 1771  rails g devise:install
 1772  ls
 1773  vim config/environments/development.rb 
 1774  vim app/views/layouts/application.html.erb 
 1775  rails g devise user
 1776  rake db:create
 1777  vim config/database.yml 
 1778  rake db:create
 1779  rake db:migrate
 1780  rake db:migrate VERSION=0
 1781  rake db:migrate
 1782  cd ..
 1783  ls
 1784  cp sample sample1
 1785  cp sample sample1 -r
 1786  ls
 1787  cd sample
 1788  ls
 1789  mysql -u root -p
 1790  ls
 1791  mysql -u root -p
 1792  cd ..
 1793  ls
 1794  cd ..
 1795  ls
 1796  cd ..
 1797  ls
 1798  cd ..
 1799  ls
 1800  cp -r sample sample1
 1801  ls
 1802  mysql -u root -p
 1803  ls
 1804  cd ..
 1805  cd 
 1806  cd myrails/
 1807  ls
 1808  cp -r sample sample1/
 1809  mysql -u root -p
 1810  vim ../../db/migrate/20150904211448_devise_create_users.rb 
 1811  vim ../models/user.rb 
 1812  vim ../../db/migrate/20150904211448_devise_create_users.rb 
 1813  ls
 1814  rake db:migrate
 1815  vim ../../db/migrate/20150904211448_devise_create_users.rb 
 1816  vim ../../db/migrate/20150904214313_create_projects.rb 
 1817  rake db:migrate
 1818  vim ../../db/migrate/20150904214313_create_projects.rb 
 1819  vim ../../db/migrate/20150904211448_devise_create_users.rb 
 1820  rake db:migrate
 1821  ls
 1822  cd ..
 1823  ls
 1824  m
 1825  cd models/
 1826  ls
 1827  vim project.rb 
 1828  cd ..
 1829  ls
 1830  vim mailers/
 1831  cd mailers/
 1832  ls
 1833  cd ..
 1834  ls
 1835  vim views/
 1836  cd views/
 1837  ls
 1838  cd projects/
 1839  ls
 1840  vim show.
 1841  vim show.html.erb 
 1842  ls
 1843  cd ..
 1844  ls
 1845  cd ..
 1846  ls
 1847  cd ..
 1848  sl
 1849  ls
 1850  rake db:migrate VERSION=0
 1851  ls
 1852  history > 1.txt
